Final Project
…
prem <- read_excel("EPL_Payroll.xlsx")

x <- prem |>
  select("Season", "Rk", "Squad", "Annual Wages", "Standing") |>
  mutate(annual = str_extract(`Annual Wages`, "\\$[0-9,]+")) |>
  mutate(annual = as.numeric(gsub("[$,]", "", annual))) |>
  select(-`Annual Wages`)

x

# A tibble: 200 × 5
   Season    Rk Squad          Standing    annual
    <dbl> <dbl> <chr>             <dbl>     <dbl>
 1   2022     6 Arsenal               2 129210591
 2   2022     7 Aston Villa           7 127888743
 3   2022    18 Bournemouth          15  48842265
 4   2022    20 Brentford             9  40845084
 5   2022    19 Brighton              6  48776174
 6   2022     3 Chelsea              12 241567629
 7   2022    12 Crystal Palace       11  84928703
 8   2022     8 Everton              17 107796661
 9   2022    13 Fulham               10  69066531
10   2022    17 Leeds United         19  62754708
# ℹ 190 more rows
…
