Final Project - bundesliga
…
The following object is masked from 'package:plotly':

    style

bundesliga <- read_excel("Bundesliga_Payroll.xlsx")

y <- bundesliga |>
  select("Season", "Rk", "Squad", "Annual Wages", "Standing") |>
  mutate(annual = str_extract(`Annual Wages`, "\\$[0-9,]+")) |>
  mutate(annual = as.numeric(gsub("[$,]", "", annual))) |>
  select(-`Annual Wages`)

y

# A tibble: 175 × 5
   Season    Rk Squad          Standing    annual
    <dbl> <dbl> <chr>             <dbl>     <dbl>
 1   2022    11 Augsburg             15  28506518
 2   2022     1 Bayern Munich         1 287000606
 3   2022    18 Bochum               14  17167333
 4   2022     2 Dortmund              2 133970796
 5   2022     9 Eint Frankfurt        7  37133920
 6   2022    16 Freiburg              5  21420895
 7   2022    10 Hertha BSC           18  36543455
 8   2022     7 Hoffenheim           12  41267203
 9   2022    13 Köln                 11  23378187
10   2022     4 Leverkusen            6  62688098
# ℹ 165 more rows
…
pe_2

# A tibble: 80,000 × 2
    rank standing
   <dbl>    <dbl>
 1     1     4.11
 2     2     4.78
 3     3     5.44
 4     4     6.10
 5     5     6.76
 6     6     7.42
 7     7     8.08
 8     8     8.74
 9     9     9.40
10    10    10.1 
# ℹ 79,990 more rows
…
y_1 |>
  ggplotly()

`geom_smooth()` using formula = 'y ~ x'

top5 <- read_excel("Top5Leagues_Payroll.xlsx")
top5

# A tibble: 1,052 × 10
   League Season    Rk Squad  `# Pl` `Weekly Wages` `Annual Wages` `% Estimated`
   <chr>   <dbl> <dbl> <chr>   <dbl> <chr>          <chr>                  <dbl>
 1 EPL      2022     6 Arsen…     69 £ 1,955,000 (… £ 101,660,000…          0.07
 2 EPL      2022     7 Aston…     81 £ 1,935,000 (… £ 100,620,000…          0.23
 3 EPL      2022    18 Bourn…     83 £ 739,000 (€ … £ 38,428,000 …          0.55
 4 EPL      2022    20 Brent…     75 £ 618,000 (€ … £ 32,136,000 …          0.75
 5 EPL      2022    19 Brigh…     70 £ 738,000 (€ … £ 38,376,000 …          0.69
 6 EPL      2022     3 Chels…     86 £ 3,655,000 (… £ 190,060,000…          0.16
 7 EPL      2022    12 Cryst…     73 £ 1,285,000 (… £ 66,820,000 …          0.48
 8 EPL      2022     8 Evert…     80 £ 1,631,000 (… £ 84,812,000 …          0.45
 9 EPL      2022    13 Fulham     72 £ 1,045,000 (… £ 54,340,000 …          0.42
10 EPL      2022    17 Leeds…     78 £ 949,500 (€ … £ 49,374,000 …          0.7 
# ℹ 1,042 more rows
# ℹ 2 more variables: Standing <dbl>, `Squad (again)` <chr>
…
